{
    "version": "https://jsonfeed.org/version/1",
    "title": "Süper Mario Oyna",
    "description": "",
    "home_page_url": "https://smoyna.gitlab.io",
    "feed_url": "https://smoyna.gitlab.io/feed.json",
    "user_comment": "",
    "author": {
        "name": "mario"
    },
    "items": [
        {
            "id": "https://smoyna.gitlab.io/super-mario-yaris.html",
            "url": "https://smoyna.gitlab.io/super-mario-yaris.html",
            "title": "Süper Mario Yarış",
            "summary": "Reklam Reklam Tam Ekran Reklam Reklam Reklam Mario'yu bir de go kart&hellip;",
            "content_html": "<div class=\"container1\">\n<div class=\"throw-ads-320x90\" style=\"padding-bottom: 15px;\">\n<div class=\"ads\">\n<div class=\"ads-margin\">\n<div class=\"ads-title horizontal-title\">Reklam</div>\n<div class=\"ads\" style=\"width: 320px; height: 100px;\"> <!-- AdForGames.com code begin -->\n<script>var afg={};afg.u=6089;afg.s=1;\ndocument.write(\"<sc\"+\"ript src='//js.adforgames.com/cd.js'></sc\"+\"ript>\");</script>\n<!-- AdForGames.com code end --></div>\n</div>\n</div>\n</div>\n<div class=\"row\">\n<div class=\"grid-frame\">\n<div class=\"throw-ads-160x600 throw-ads-160x600-left\">\n<div class=\"ads\">\n<div class=\"ads-margin\">\n<div class=\"ads-title\">Reklam</div>\n<div class=\"ads\" style=\"width: 160px; height: 600px;\"> <!-- AdForGames.com code begin -->\n<script>var afg={};afg.u=6089;afg.s=5;\ndocument.write(\"<sc\"+\"ript src='//js.adforgames.com/cd.js'></sc\"+\"ript>\");</script>\n<!-- AdForGames.com code end --></div>\n</div>\n</div>\n</div>\n<div id=\"framexy\" class=\"frame-box-game\"><div class=\"post__iframe\"><iframe loading=\"lazy\" width=\"600px\" height=\"500px\" id=\"iframehtml51\" class=\"d-block\" onclick=\"goFullscreen('embededGame')\" target=\"_parent\" src=\"https://funhtml5games.com/?embed=mariokart\" frameborder=\"0\" border=\"0\" scrolling=\"no\" allowfullscreen=\"allowfullscreen\"></iframe></div>\n<div align=\"center\"><button class=\"button\">Tam Ekran</button></div>\n</div>\n<div class=\"throw-ads-160x600 throw-ads-160x600-right\">\n<div class=\"ads\">\n<div class=\"ads-margin\">\n<div class=\"ads-title\">Reklam</div>\n<div class=\"ads\" style=\"width: 160px; height: 600px;\"><!-- AdForGames.com code begin -->\n<script>var afg={};afg.u=6089;afg.s=5;\ndocument.write(\"<sc\"+\"ript src='//js.adforgames.com/cd.js'></sc\"+\"ript>\");</script>\n<!-- AdForGames.com code end --> </div>\n</div>\n</div>\n</div>\n</div>\n</div>\n<div class=\"row\">\n<div style=\"height: 15px;\"> </div>\n<div class=\"throw-ads-728x90\">\n<div class=\"ads\">\n<div class=\"ads-margin\">\n<div class=\"ads-title horizontal-title\">Reklam</div>\n<div class=\"ads\" style=\"width: 728px; height: 90px;\"> <!-- AdForGames.com code begin -->\n<script>var afg={};afg.u=6089;afg.s=4;\ndocument.write(\"<sc\"+\"ript src='//js.adforgames.com/cd.js'></sc\"+\"ript>\");</script>\n<!-- AdForGames.com code end --></div>\n</div>\n</div>\n</div>\n<div class=\"throw-ads-320x90\">\n<div class=\"ads\">\n<div class=\"ads-margin\">\n<div class=\"ads-title horizontal-title\">Reklam</div>\n<div class=\"ads\" style=\"width: 320px; height: 100px;\"> <!-- AdForGames.com code begin -->\n<script>var afg={};afg.u=6089;afg.s=1;\ndocument.write(\"<sc\"+\"ript src='//js.adforgames.com/cd.js'></sc\"+\"ript>\");</script>\n<!-- AdForGames.com code end --></div>\n</div>\n</div>\n</div>\n</div>\n</div>\n<p>\n<script>\nvar button = document.querySelector('#framexy .button');\nbutton.addEventListener('click', fullscreen);\n// when you are in fullscreen, ESC and F11 may not be trigger by keydown listener. \n// so don't use it to detect exit fullscreen\ndocument.addEventListener('keydown', function (e) {\n  console.log('key press' + e.keyCode);\n});\n// detect enter or exit fullscreen mode\ndocument.addEventListener('webkitfullscreenchange', fullscreenChange);\ndocument.addEventListener('mozfullscreenchange', fullscreenChange);\ndocument.addEventListener('fullscreenchange', fullscreenChange);\ndocument.addEventListener('MSFullscreenChange', fullscreenChange);\n\nfunction fullscreen() {\n  // check if fullscreen mode is available\n  if (document.fullscreenEnabled || \n    document.webkitFullscreenEnabled || \n    document.mozFullScreenEnabled ||\n    document.msFullscreenEnabled) {\n    \n    // which element will be fullscreen\n    var iframe = document.querySelector('#framexy iframe');\n    // Do fullscreen\n    if (iframe.requestFullscreen) {\n      iframe.requestFullscreen();\n    } else if (iframe.webkitRequestFullscreen) {\n      iframe.webkitRequestFullscreen();\n    } else if (iframe.mozRequestFullScreen) {\n      iframe.mozRequestFullScreen();\n    } else if (iframe.msRequestFullscreen) {\n      iframe.msRequestFullscreen();\n    }\n  }\n  else {\n    document.querySelector('.error').innerHTML = 'Your browser is not supported';\n  }\n}\n\nfunction fullscreenChange() {\n  if (document.fullscreenEnabled ||\n       document.webkitIsFullScreen || \n       document.mozFullScreen ||\n       document.msFullscreenElement) {\n    console.log('enter fullscreen');\n  }\n  else {\n    console.log('exit fullscreen');\n  }\n  // force to reload iframe once to prevent the iframe source didn't care about trying to resize the window\n  // comment this line and you will see\n  var iframe = document.querySelector('iframe');\n  iframe.src = iframe.src;\n}\n</script>\n</p>\n<h1>Süper Mario Yarış</h1>\n<p>Mario'yu bir de go kart aracı içinde görün. Bu oyun bir go kart pistinde rakiplerinize karşı yarışmanızı sağlayacaktır. Elbetteki birinci gelerek rakiplerinizi geçmeniz gerekiyor.</p>\n<p>Süper Mario Yarışında, yoldan çıkmadan ve yol üzerinde bulunan engellere takılmadan rakiplerinizi geçerek seviyeleri tamamlamalısın.</p>\n<p> </p>\n<h3>İpuçları</h3>\n<ol>\n<li>Aracı kullanırken rakiplerinize fazla yaklaşmamaya özen gösterin. Dönüşlerde falan çarpabiliyorsunuz ve bu da hızınızı yavaşlatabilir veya yoldan çıkmanıza sebep olabilir.</li>\n<li>Yoldaki engellerden sakının.</li>\n<li>Oyunun ilk etaplarında hızlıca rakiplerinizi geçmeye çalışın. Aksi takdirde rakipleriniz sizi çoktan geçmiş olabilir. Ve onlara yetişmek gerçekten zor olabilir.</li>\n<li>Yoldan çıkmayın ve dönüşleri dikkatlice yapın. Yoldan çıkmak ve yoldaki engeller sizi yavaşlatabilir.</li>\n</ol>",
            "image": "https://smoyna.gitlab.io/media/posts/40/super-mario-yaris.png",
            "author": {
                "name": "mario"
            },
            "tags": [
                   "Yarış"
            ],
            "date_published": "2024-01-21T12:43:01+03:00",
            "date_modified": "2024-01-21T14:52:42+03:00"
        },
        {
            "id": "https://smoyna.gitlab.io/super-mario-fps.html",
            "url": "https://smoyna.gitlab.io/super-mario-fps.html",
            "title": "Süper Mario FPS",
            "summary": "Reklam Reklam Tam Ekran Reklam Reklam Reklam Süper Mario Fps, bir başka&hellip;",
            "content_html": "<div class=\"container1\">\n<div class=\"throw-ads-320x90\" style=\"padding-bottom: 15px;\">\n<div class=\"ads\">\n<div class=\"ads-margin\">\n<div class=\"ads-title horizontal-title\">Reklam</div>\n<div class=\"ads\" style=\"width: 320px; height: 100px;\"> <!-- AdForGames.com code begin -->\n<script>var afg={};afg.u=6089;afg.s=1;\ndocument.write(\"<sc\"+\"ript src='//js.adforgames.com/cd.js'></sc\"+\"ript>\");</script>\n<!-- AdForGames.com code end --></div>\n</div>\n</div>\n</div>\n<div class=\"row\">\n<div class=\"grid-frame\">\n<div class=\"throw-ads-160x600 throw-ads-160x600-left\">\n<div class=\"ads\">\n<div class=\"ads-margin\">\n<div class=\"ads-title\">Reklam</div>\n<div class=\"ads\" style=\"width: 160px; height: 600px;\"> <!-- AdForGames.com code begin -->\n<script>var afg={};afg.u=6089;afg.s=5;\ndocument.write(\"<sc\"+\"ript src='//js.adforgames.com/cd.js'></sc\"+\"ript>\");</script>\n<!-- AdForGames.com code end --></div>\n</div>\n</div>\n</div>\n<div id=\"framexy\" class=\"frame-box-game\"><div class=\"post__iframe\"><iframe loading=\"lazy\" width=\"600px\" height=\"500px\" id=\"iframehtml51\" class=\"d-block\" onclick=\"goFullscreen('embededGame')\" target=\"_parent\" src=\"https://funhtml5games.com/?embed=mariofps\" frameborder=\"0\" border=\"0\" scrolling=\"no\" allowfullscreen=\"allowfullscreen\"></iframe></div>\n<div align=\"center\"><button class=\"button\">Tam Ekran</button></div>\n</div>\n<div class=\"throw-ads-160x600 throw-ads-160x600-right\">\n<div class=\"ads\">\n<div class=\"ads-margin\">\n<div class=\"ads-title\">Reklam</div>\n<div class=\"ads\" style=\"width: 160px; height: 600px;\"><!-- AdForGames.com code begin -->\n<script>var afg={};afg.u=6089;afg.s=5;\ndocument.write(\"<sc\"+\"ript src='//js.adforgames.com/cd.js'></sc\"+\"ript>\");</script>\n<!-- AdForGames.com code end --> </div>\n</div>\n</div>\n</div>\n</div>\n</div>\n<div class=\"row\">\n<div style=\"height: 15px;\"> </div>\n<div class=\"throw-ads-728x90\">\n<div class=\"ads\">\n<div class=\"ads-margin\">\n<div class=\"ads-title horizontal-title\">Reklam</div>\n<div class=\"ads\" style=\"width: 728px; height: 90px;\"> <!-- AdForGames.com code begin -->\n<script>var afg={};afg.u=6089;afg.s=4;\ndocument.write(\"<sc\"+\"ript src='//js.adforgames.com/cd.js'></sc\"+\"ript>\");</script>\n<!-- AdForGames.com code end --></div>\n</div>\n</div>\n</div>\n<div class=\"throw-ads-320x90\">\n<div class=\"ads\">\n<div class=\"ads-margin\">\n<div class=\"ads-title horizontal-title\">Reklam</div>\n<div class=\"ads\" style=\"width: 320px; height: 100px;\"> <!-- AdForGames.com code begin -->\n<script>var afg={};afg.u=6089;afg.s=1;\ndocument.write(\"<sc\"+\"ript src='//js.adforgames.com/cd.js'></sc\"+\"ript>\");</script>\n<!-- AdForGames.com code end --></div>\n</div>\n</div>\n</div>\n</div>\n</div>\n<p>\n<script>\nvar button = document.querySelector('#framexy .button');\nbutton.addEventListener('click', fullscreen);\n// when you are in fullscreen, ESC and F11 may not be trigger by keydown listener. \n// so don't use it to detect exit fullscreen\ndocument.addEventListener('keydown', function (e) {\n  console.log('key press' + e.keyCode);\n});\n// detect enter or exit fullscreen mode\ndocument.addEventListener('webkitfullscreenchange', fullscreenChange);\ndocument.addEventListener('mozfullscreenchange', fullscreenChange);\ndocument.addEventListener('fullscreenchange', fullscreenChange);\ndocument.addEventListener('MSFullscreenChange', fullscreenChange);\n\nfunction fullscreen() {\n  // check if fullscreen mode is available\n  if (document.fullscreenEnabled || \n    document.webkitFullscreenEnabled || \n    document.mozFullScreenEnabled ||\n    document.msFullscreenEnabled) {\n    \n    // which element will be fullscreen\n    var iframe = document.querySelector('#framexy iframe');\n    // Do fullscreen\n    if (iframe.requestFullscreen) {\n      iframe.requestFullscreen();\n    } else if (iframe.webkitRequestFullscreen) {\n      iframe.webkitRequestFullscreen();\n    } else if (iframe.mozRequestFullScreen) {\n      iframe.mozRequestFullScreen();\n    } else if (iframe.msRequestFullscreen) {\n      iframe.msRequestFullscreen();\n    }\n  }\n  else {\n    document.querySelector('.error').innerHTML = 'Your browser is not supported';\n  }\n}\n\nfunction fullscreenChange() {\n  if (document.fullscreenEnabled ||\n       document.webkitIsFullScreen || \n       document.mozFullScreen ||\n       document.msFullscreenElement) {\n    console.log('enter fullscreen');\n  }\n  else {\n    console.log('exit fullscreen');\n  }\n  // force to reload iframe once to prevent the iframe source didn't care about trying to resize the window\n  // comment this line and you will see\n  var iframe = document.querySelector('iframe');\n  iframe.src = iframe.src;\n}\n</script>\n</p>\n<h1>Süper Mario FPS</h1>\n<p>Süper Mario Fps, bir başka değişle 'Mario Ateş Etme' oyunu olarakta bilinir. Ne kadar hoş geliyor değil mi? Şayet Mario ve Brinci Şahıs Nişancı oyunlarını seviyorsanız, bu oyun tam size göre.</p>\n<p>Oyunda ilerleyerek yerde bulunan puanları toplayabilir ve ardı arkası kesilmeden üstümüze doğru gelen canavarları vurarak başarıya ulaşabiliriz.</p>\n<p>Aslında klasik mario oyunlarından sıkılanlar için ideal bir seçenektir. Mario oyunlarına farklı bir konsept getiren bu oyun, kolay ve eğlencelidir.</p>\n<p> </p>\n<h3>Nasıl Oynanır?</h3>\n<ol>\n<li>Hareket etmek için OK ve ya WASD tuşları kullanılır.</li>\n<li>Ateş Etmek için ise SPACE tuşu veya Sol tıklaması ile yapılır.</li>\n</ol>\n<p> </p>\n<h3>İpuçları</h3>\n<ol>\n<li><strong>Sağlık:</strong> Oyunda sağlık(HEALTH) kısmı önemli, oyuna başlangıçta %100 sağlık verilir. Bunu düşürmemeye özen gösterelim.</li>\n<li><strong>Düşmanlar:</strong> Özellikle arkamızdan gelen düşmanlara karşı dikkatli olalım. Ve onları bize fazla yaklaşmadan ateş etmeye özen gösterelim. Aksi takdirde sağlığınızdan bir miktar yüzde gidecektir.</li>\n<li><strong>Puanlar:</strong> Toplayabildiğimiz kadar puan toplayalım.</li>\n<li><strong>Skor:</strong> Düşmanları vurararak ve puan toplayarak skorumuzu yükseltebiliriz.</li>\n<li><strong>Mermiler:</strong> Sağ üst köşeden AMMO kısmına dikkat edelim. Mermilerimizi tutumlu kullanalım.</li>\n</ol>",
            "image": "https://smoyna.gitlab.io/media/posts/39/super-mario-fps.png",
            "author": {
                "name": "mario"
            },
            "tags": [
                   "FPS"
            ],
            "date_published": "2024-01-21T12:42:02+03:00",
            "date_modified": "2024-01-21T14:52:00+03:00"
        },
        {
            "id": "https://smoyna.gitlab.io/super-mario-kosu.html",
            "url": "https://smoyna.gitlab.io/super-mario-kosu.html",
            "title": "Süper Mario Koşu",
            "summary": "Reklam Reklam Tam Ekran Reklam Reklam Reklam Süper mario'yu bir de koşarken&hellip;",
            "content_html": "<div class=\"container1\">\n<div class=\"throw-ads-320x90\" style=\"padding-bottom: 15px;\">\n<div class=\"ads\">\n<div class=\"ads-margin\">\n<div class=\"ads-title horizontal-title\">Reklam</div>\n<div class=\"ads\" style=\"width: 320px; height: 100px;\"> <!-- AdForGames.com code begin -->\n<script>var afg={};afg.u=6089;afg.s=1;\ndocument.write(\"<sc\"+\"ript src='//js.adforgames.com/cd.js'></sc\"+\"ript>\");</script>\n<!-- AdForGames.com code end --></div>\n</div>\n</div>\n</div>\n<div class=\"row\">\n<div class=\"grid-frame\">\n<div class=\"throw-ads-160x600 throw-ads-160x600-left\">\n<div class=\"ads\">\n<div class=\"ads-margin\">\n<div class=\"ads-title\">Reklam</div>\n<div class=\"ads\" style=\"width: 160px; height: 600px;\"> <!-- AdForGames.com code begin -->\n<script>var afg={};afg.u=6089;afg.s=5;\ndocument.write(\"<sc\"+\"ript src='//js.adforgames.com/cd.js'></sc\"+\"ript>\");</script>\n<!-- AdForGames.com code end --></div>\n</div>\n</div>\n</div>\n<div id=\"framexy\" class=\"frame-box-game\"><div class=\"post__iframe\"><iframe loading=\"lazy\" width=\"600px\" height=\"500px\" id=\"iframehtml51\" class=\"d-block\" onclick=\"goFullscreen('embededGame')\" target=\"_parent\" src=\"https://kiz10.com/upload/games/htmlgames/super-mario-run-online-2017/1496134415/index.html\" frameborder=\"0\" border=\"0\" scrolling=\"no\" allowfullscreen=\"allowfullscreen\"></iframe></div>\n<div align=\"center\"><button class=\"button\">Tam Ekran</button></div>\n</div>\n<div class=\"throw-ads-160x600 throw-ads-160x600-right\">\n<div class=\"ads\">\n<div class=\"ads-margin\">\n<div class=\"ads-title\">Reklam</div>\n<div class=\"ads\" style=\"width: 160px; height: 600px;\"><!-- AdForGames.com code begin -->\n<script>var afg={};afg.u=6089;afg.s=5;\ndocument.write(\"<sc\"+\"ript src='//js.adforgames.com/cd.js'></sc\"+\"ript>\");</script>\n<!-- AdForGames.com code end --> </div>\n</div>\n</div>\n</div>\n</div>\n</div>\n<div class=\"row\">\n<div style=\"height: 15px;\"> </div>\n<div class=\"throw-ads-728x90\">\n<div class=\"ads\">\n<div class=\"ads-margin\">\n<div class=\"ads-title horizontal-title\">Reklam</div>\n<div class=\"ads\" style=\"width: 728px; height: 90px;\"> <!-- AdForGames.com code begin -->\n<script>var afg={};afg.u=6089;afg.s=4;\ndocument.write(\"<sc\"+\"ript src='//js.adforgames.com/cd.js'></sc\"+\"ript>\");</script>\n<!-- AdForGames.com code end --></div>\n</div>\n</div>\n</div>\n<div class=\"throw-ads-320x90\">\n<div class=\"ads\">\n<div class=\"ads-margin\">\n<div class=\"ads-title horizontal-title\">Reklam</div>\n<div class=\"ads\" style=\"width: 320px; height: 100px;\"> <!-- AdForGames.com code begin -->\n<script>var afg={};afg.u=6089;afg.s=1;\ndocument.write(\"<sc\"+\"ript src='//js.adforgames.com/cd.js'></sc\"+\"ript>\");</script>\n<!-- AdForGames.com code end --></div>\n</div>\n</div>\n</div>\n</div>\n</div>\n<p>\n<script>\nvar button = document.querySelector('#framexy .button');\nbutton.addEventListener('click', fullscreen);\n// when you are in fullscreen, ESC and F11 may not be trigger by keydown listener. \n// so don't use it to detect exit fullscreen\ndocument.addEventListener('keydown', function (e) {\n  console.log('key press' + e.keyCode);\n});\n// detect enter or exit fullscreen mode\ndocument.addEventListener('webkitfullscreenchange', fullscreenChange);\ndocument.addEventListener('mozfullscreenchange', fullscreenChange);\ndocument.addEventListener('fullscreenchange', fullscreenChange);\ndocument.addEventListener('MSFullscreenChange', fullscreenChange);\n\nfunction fullscreen() {\n  // check if fullscreen mode is available\n  if (document.fullscreenEnabled || \n    document.webkitFullscreenEnabled || \n    document.mozFullScreenEnabled ||\n    document.msFullscreenEnabled) {\n    \n    // which element will be fullscreen\n    var iframe = document.querySelector('#framexy iframe');\n    // Do fullscreen\n    if (iframe.requestFullscreen) {\n      iframe.requestFullscreen();\n    } else if (iframe.webkitRequestFullscreen) {\n      iframe.webkitRequestFullscreen();\n    } else if (iframe.mozRequestFullScreen) {\n      iframe.mozRequestFullScreen();\n    } else if (iframe.msRequestFullscreen) {\n      iframe.msRequestFullscreen();\n    }\n  }\n  else {\n    document.querySelector('.error').innerHTML = 'Your browser is not supported';\n  }\n}\n\nfunction fullscreenChange() {\n  if (document.fullscreenEnabled ||\n       document.webkitIsFullScreen || \n       document.mozFullScreen ||\n       document.msFullscreenElement) {\n    console.log('enter fullscreen');\n  }\n  else {\n    console.log('exit fullscreen');\n  }\n  // force to reload iframe once to prevent the iframe source didn't care about trying to resize the window\n  // comment this line and you will see\n  var iframe = document.querySelector('iframe');\n  iframe.src = iframe.src;\n}\n</script>\n</p>\n<h1>Süper Mario Koşu</h1>\n<p>Süper mario'yu bir de koşarken görün. Bu klasik mario'da olduğu gibi bu sefer yürüyerek değilde, koşarak prensesisi kurtaracağız. </p>\n<p>Bu oyunda prensesimiz yine kötü karakter bowser'ın elinde, ve onu kurtarmamız gerekiyor. Bunun için mario'ya yardım etmelisin. Fakat bu o kadar kolay olmayacaktır. Koşarken önününe türlü türlü engeller çıkabilir. Bunlar yangınlar ve dönen testereler olabilir. Fakat hızlı koşarak ve önüne çıkan engelleri zamanında farkedip onları aşarak prensesi kurtarabilirsin!</p>\n<p>Oyunda puanları toplayarak yüksek skorlar alabilir veya topladığın puanlarla mağazadan mario'yu giydirebilirsin.</p>\n<p> </p>\n<h3>Nasıl Oynanır?</h3>\n<p>Oyun PC ve mobilde rahatlıkla oynanabilir.</p>\n<p><strong>PC:</strong> Sadece mouse kullanarak sol tıklama yaparsan zıplarsın. Eğer iki defa tıklarsan duble zıplama yapar.</p>\n<p><strong>Mobil:</strong> Telefon veya tabletten dokunmatiği kullanarak zıplarsın.</p>",
            "image": "https://smoyna.gitlab.io/media/posts/38/super-mario-kosu.png",
            "author": {
                "name": "mario"
            },
            "tags": [
                   "Koşu"
            ],
            "date_published": "2024-01-21T12:25:34+03:00",
            "date_modified": "2024-01-21T14:50:40+03:00"
        },
        {
            "id": "https://smoyna.gitlab.io/kullanim-sartlari.html",
            "url": "https://smoyna.gitlab.io/kullanim-sartlari.html",
            "title": "Kullanım Şartları",
            "summary": "KULLANIM ŞARTLARI https://smoyna.gitlab.io/ web sitesini ziyaret ederken ve / veya herhangi bir&hellip;",
            "content_html": "<p><strong>KULLANIM ŞARTLARI</strong><br>https://smoyna.gitlab.io/ web sitesini ziyaret ederken ve / veya herhangi bir yazılımını, oyununu kullanırken, “Gizlilik Politikası” ve “Kullanım Şartları”nı kabul etmiş olursunuz. Bu koşulların hiçbirini kabul etmiyorsanız, web sitesini ve / veya hizmetlerini kullanmanıza izin verilmez. https://smoyna.gitlab.io/, politikaları istediği zaman güncelleme ve değiştirme hakkına sahiptir. Ziyaretçiler güncellemeleri görmek için daima ilgili sayfaları kontrol etmelidir.<br><br><strong>Erişim Kısıtlaması</strong><br>https://smoyna.gitlab.io/ web sitesi 13 yaşından büyük ziyaretçilere uygundur, genç ziyaretçilere servislerini ve oyunlarını ebeveynleriyle birlikte kullanmaları önerilir.<br><br><strong>Oyunların Mülkiyet Hakları</strong><br>Yayımlanan oyunların çoğu bize yaratıcıları, mülkiyet hakları sahipleri tarafından gönderilir veya önerilir. https://smoyna.gitlab.io/ başkalarının fikri mülkiyet haklarına veya haklarına saygı gösterip göstermediklerini onaylayamaz. İlgili herhangi bir telif hakkı kuruluşuna veya sahibine uygun olarak bildirim aldıktan sonra, https://smoyna.gitlab.io/ söz konusu oyunları hemen devre dışı bırakacak ve kaldıracaktır.<br><br><strong>Giden ve Gelen Bağlantılar</strong><br>https://smoyna.gitlab.io/ web sitemize bağlanan web siteleri ve web sitesinde yayınlanan oyunların giden bağlantıları ile ilgili hiçbir sorumluluk kabul etmemektedir.<br><br><strong>Reklamlar</strong><br>https://smoyna.gitlab.io/ web sitesinde yayınlanan reklamlarla ilgili herhangi bir sorumluluk kabul etmemektedir.</p>",
            "author": {
                "name": "mario"
            },
            "tags": [
            ],
            "date_published": "2024-01-09T16:39:03+03:00",
            "date_modified": "2024-01-19T11:46:33+03:00"
        },
        {
            "id": "https://smoyna.gitlab.io/gizlilik-politikasi.html",
            "url": "https://smoyna.gitlab.io/gizlilik-politikasi.html",
            "title": "Gizlilik Politikası",
            "summary": "GİZLİLİK POLİTİKASI Kişisel Bilgi https://smoyna.gitlab.io/ çevrimiçi gizliliğinizi korumayı taahhüt eder. https://smoyna.gitlab.io/ herhangi&hellip;",
            "content_html": "<p><strong>GİZLİLİK POLİTİKASI</strong><br><strong>Kişisel Bilgi</strong><br>https://smoyna.gitlab.io/ çevrimiçi gizliliğinizi korumayı taahhüt eder. https://smoyna.gitlab.io/ herhangi bir kişisel bilgi toplamaz. IP adresi ve günlük IP adresiniz, geniş demografik bilgiler toplamak ve genel ziyaret eden ana üyelerimizi (bir web sitesinden kaç sayfa görüntülediğiniz, indirmeler vb.) İzlemek için kullanılır.<br><br><strong>Üçüncü Şahıs Reklamları</strong><br>Web sitemizi ziyaret ettiğinizde üçüncü taraf şirketlere reklamlar sunabilir ve / veya bazı anonim bilgiler toplayabiliriz. Bu şirketler, muhtemel mal ve hizmetlerle ilgili reklamlar vermek için bu ve diğer Web sitelerine yaptığınız ziyaretlerde kişisel olarak tanımlanamayan bilgiler (örneğin, tıklama akışı bilgileri, tarayıcı türü, saat ve tarih, tıklanan veya kaydırılan reklamların konusu) kullanabilir. Bu şirketler genellikle bu bilgileri toplamak için bir çerez veya üçüncü taraf web işaretçisi kullanır. Bu davranışsal reklamcılık uygulaması hakkında daha fazla bilgi edinmek veya bu tür reklamlardan vazgeçmek için http://www.networkadvertising.org/managing/opt_out.asp adresini ziyaret edebilirsiniz.<br><br><strong>Üçüncü Parti Çerezleri</strong><br>Bu siteye reklam sunma sürecinde, üçüncü taraf reklamverenimiz tarayıcınıza benzersiz bir çerez yerleştirebilir veya tanıyabilir.<br><br><strong>Yükümlülük</strong><br>Fikri mülkiyet ihlali iddialarına hızlı bir şekilde yanıt vermek https://smoyna.gitlab.io/’un politikasıdır. İlgili herhangi bir telif hakkı kuruluşuna veya sahibine uygun olarak bildirim aldıktan sonra, https://smoyna.gitlab.io/ söz konusu oyunları hemen devre dışı bırakacak ve kaldıracaktır.<br><br><strong>Dış bağlantılar</strong><br>https://smoyna.gitlab.io/ sitesi diğer sitelere bağlantılar içermektedir. https://smoyna.gitlab.io/, gizlilik uygulamalarından veya bu tür Web sitelerinin içeriğinden sorumlu değildir.</p>",
            "author": {
                "name": "mario"
            },
            "tags": [
            ],
            "date_published": "2024-01-09T16:38:40+03:00",
            "date_modified": "2024-01-19T11:47:06+03:00"
        }
    ]
}
